RISC-V/CHISEL/test_run_dir/RiscV_Core_Reset_Sequence_should_generate_VCD_file/RiscV.vcd
$date
2025-05-07T16:41+0000
$end
$version
0.2
$end
$comment

$end
$timescale 1ns  $end
$scope module RiscV $end
 $var wire 1 % reg_file $end
 $var wire 32 4 f_pc $end
 $var wire 32 7 result $end
 $var wire 1 K instr_mem $end
 $var wire 1 w alu_ctrl $end
 $var wire 1 y data_mem $end
 $var wire 32 "' pc_current $end
 $var wire 32 "+ io_x2 $end
 $var wire 32 ", io_x1 $end
 $var wire 32 "/ io_x3 $end
 $var wire 1 "5 alu $end
 $var wire 1 "6 clock $end
 $var wire 1 "Z reg_wr $end
 $var wire 32 "\ wrd_mem $end
 $var wire 1 "] ctrl $end
 $var wire 1 "^ mem_wr $end
 $var wire 5 "` waddr $end
 $var wire 32 "b alu_reg $end
 $var wire 32 "o if_reg $end
 $var wire 1 "p mr_reg $end
 $var wire 32 "z pc_next $end
 $var wire 1 #0 forwarding $end
 $var wire 32 #< forward_alu_b $end
 $var wire 32 #= forward_alu_a $end
 $var wire 1 #J mem_rd $end
 $var wire 1 #P reset $end
 $var wire 1 #Z imm_gen $end
 $var wire 32 #[ imm_out $end
 $var wire 32 $* addresult $end
 $var wire 1 $4 rst_n $end
  $scope module imm_gen $end
   $var wire 32 - io_imm_val $end
   $var wire 5 6 io_imm_val_lo $end
   $var wire 11 ; io_imm_val_lo_hi $end
   $var wire 21 ` io_imm_val_hi_hi $end
   $var wire 7 i op_code $end
   $var wire 32 #D io_instr $end
   $var wire 12 #f io_imm_val_hi_hi_1 $end
   $var wire 27 $# io_imm_val_hi $end
   $var wire 27 $& io_imm_val_hi_1 $end
   $var wire 20 $' io_imm_val_hi_2 $end
   $var wire 12 $) io_imm_val_lo_1 $end
  $upscope $end
  $scope module alu_ctrl $end
   $var wire 2 B io_alu_op $end
   $var wire 4 "? io_operation $end
   $var wire 4 #^ io_funct73 $end
  $upscope $end
  $scope module ctrl $end
   $var wire 2 N io_alu_op $end
   $var wire 1 O io_regwrite $end
   $var wire 1 v io_memtoreg $end
   $var wire 1 | io_memwrite $end
   $var wire 1 "1 io_memread $end
   $var wire 7 "R io_opcode $end
   $var wire 1 "X io_alu_src $end
   $var wire 1 $% io_branch $end
  $upscope $end
  $scope module instr_mem $end
   $var wire 1 U clock $end
   $var wire 32 "m mem $end
   $var wire 32 #K io_instr $end
   $var wire 24 #M defaultProgram_9 $end
   $var wire 24 #N defaultProgram_8 $end
   $var wire 24 #O defaultProgram_3 $end
   $var wire 24 #Q defaultProgram_2 $end
   $var wire 24 #R defaultProgram_1 $end
   $var wire 24 #S defaultProgram_0 $end
   $var wire 24 #U defaultProgram_7 $end
   $var wire 24 #V defaultProgram_6 $end
   $var wire 24 #X defaultProgram_5 $end
   $var wire 24 #Y defaultProgram_4 $end
   $var wire 32 #o io_addr $end
   $var wire 24 $+ defaultProgram_11 $end
   $var wire 24 $, defaultProgram_12 $end
   $var wire 24 $- defaultProgram_13 $end
   $var wire 24 $. defaultProgram_14 $end
   $var wire 24 $/ defaultProgram_15 $end
   $var wire 24 $5 defaultProgram_10 $end
    $scope module mem $end
     $var wire 32 8 MPORT $end
     $var wire 32 "L MPORT_8 $end
     $var wire 32 "N MPORT_9 $end
     $var wire 32 "O MPORT_6 $end
     $var wire 32 "P MPORT_7 $end
     $var wire 32 #> MPORT_1 $end
     $var wire 32 #? MPORT_4 $end
     $var wire 32 #@ MPORT_5 $end
     $var wire 32 #A MPORT_2 $end
     $var wire 32 #B MPORT_3 $end
     $var wire 32 #t MPORT_12 $end
     $var wire 32 #u MPORT_11 $end
     $var wire 32 #v MPORT_10 $end
     $var wire 32 #x MPORT_15 $end
     $var wire 32 #y MPORT_14 $end
     $var wire 32 #z MPORT_13 $end
      $scope module MPORT_7 $end
       $var wire 1 # valid $end
       $var wire 4 1 pipeline_addr_0 $end
       $var wire 32 L pipeline_data_0 $end
       $var wire 1 R en $end
       $var wire 4 e addr $end
       $var wire 1 j pipeline_valid_0 $end
       $var wire 1 "T mask $end
       $var wire 32 #7 data $end
       $var wire 1 #~ clk $end
      $upscope $end
      $scope module MPORT_13 $end
       $var wire 1 $ en $end
       $var wire 1 I valid $end
       $var wire 1 ") mask $end
       $var wire 32 "7 data $end
       $var wire 4 "e pipeline_addr_0 $end
       $var wire 4 "l addr $end
       $var wire 1 #W pipeline_valid_0 $end
       $var wire 1 #] clk $end
       $var wire 32 $1 pipeline_data_0 $end
      $upscope $end
      $scope module MPORT_11 $end
       $var wire 1 & pipeline_valid_0 $end
       $var wire 1 ) valid $end
       $var wire 32 * pipeline_data_0 $end
       $var wire 32 "0 data $end
       $var wire 4 "= addr $end
       $var wire 1 "_ clk $end
       $var wire 1 #5 mask $end
       $var wire 4 #s pipeline_addr_0 $end
       $var wire 1 #} en $end
      $upscope $end
      $scope module MPORT $end
       $var wire 32 ' pipeline_data_0 $end
       $var wire 1 : mask $end
       $var wire 1 J clk $end
       $var wire 1 g en $end
       $var wire 1 ". pipeline_valid_0 $end
       $var wire 1 "3 valid $end
       $var wire 4 #` addr $end
       $var wire 32 #h data $end
       $var wire 4 #p pipeline_addr_0 $end
      $upscope $end
      $scope module MPORT_14 $end
       $var wire 32 ( pipeline_data_0 $end
       $var wire 32 = data $end
       $var wire 4 C addr $end
       $var wire 1 H en $end
       $var wire 1 ^ clk $end
       $var wire 1 "@ pipeline_valid_0 $end
       $var wire 1 #E valid $end
       $var wire 1 #l mask $end
       $var wire 4 #q pipeline_addr_0 $end
      $upscope $end
      $scope module MPORT_8 $end
       $var wire 1 + en $end
       $var wire 1 D pipeline_valid_0 $end
       $var wire 1 k mask $end
       $var wire 4 "I addr $end
       $var wire 32 "K pipeline_data_0 $end
       $var wire 1 "Y clk $end
       $var wire 32 "j data $end
       $var wire 4 "s pipeline_addr_0 $end
       $var wire 1 "x valid $end
      $upscope $end
      $scope module MPORT_5 $end
       $var wire 1 , pipeline_valid_0 $end
       $var wire 1 2 mask $end
       $var wire 1 3 clk $end
       $var wire 1 o valid $end
       $var wire 32 "J pipeline_data_0 $end
       $var wire 4 "n pipeline_addr_0 $end
       $var wire 4 #* addr $end
       $var wire 32 #g data $end
       $var wire 1 $6 en $end
      $upscope $end
      $scope module MPORT_1 $end
       $var wire 4 . pipeline_addr_0 $end
       $var wire 32 F pipeline_data_0 $end
       $var wire 1 "# en $end
       $var wire 1 "- mask $end
       $var wire 1 "S clk $end
       $var wire 1 "W valid $end
       $var wire 1 "a pipeline_valid_0 $end
       $var wire 4 "g addr $end
       $var wire 32 #6 data $end
      $upscope $end
      $scope module MPORT_4 $end
       $var wire 4 / pipeline_addr_0 $end
       $var wire 32 M pipeline_data_0 $end
       $var wire 1 \ clk $end
       $var wire 1 f valid $end
       $var wire 1 n mask $end
       $var wire 32 "U data $end
       $var wire 4 "i addr $end
       $var wire 1 "} pipeline_valid_0 $end
       $var wire 1 #r en $end
      $upscope $end
      $scope module MPORT_6 $end
       $var wire 32 0 data $end
       $var wire 4 _ addr $end
       $var wire 1 "> mask $end
       $var wire 32 "F pipeline_data_0 $end
       $var wire 1 "f valid $end
       $var wire 1 #a en $end
       $var wire 4 #b pipeline_addr_0 $end
       $var wire 1 $" clk $end
       $var wire 1 $2 pipeline_valid_0 $end
      $upscope $end
      $scope module MPORT_10 $end
       $var wire 1 5 mask $end
       $var wire 32 Q data $end
       $var wire 4 "h pipeline_addr_0 $end
       $var wire 1 #% pipeline_valid_0 $end
       $var wire 1 #H en $end
       $var wire 1 #T clk $end
       $var wire 4 #e addr $end
       $var wire 32 #n pipeline_data_0 $end
       $var wire 1 #{ valid $end
      $upscope $end
      $scope module MPORT_15 $end
       $var wire 1 > clk $end
       $var wire 4 G addr $end
       $var wire 1 S en $end
       $var wire 4 Y pipeline_addr_0 $end
       $var wire 32 h data $end
       $var wire 1 "4 mask $end
       $var wire 1 "d pipeline_valid_0 $end
       $var wire 32 #' pipeline_data_0 $end
       $var wire 1 #C valid $end
      $upscope $end
      $scope module MPORT_9 $end
       $var wire 1 ? en $end
       $var wire 1 X valid $end
       $var wire 1 a mask $end
       $var wire 32 "2 data $end
       $var wire 4 "A addr $end
       $var wire 32 "E pipeline_data_0 $end
       $var wire 1 "V pipeline_valid_0 $end
       $var wire 1 "t clk $end
       $var wire 4 #c pipeline_addr_0 $end
      $upscope $end
      $scope module MPORT_2 $end
       $var wire 32 @ data $end
       $var wire 1 P mask $end
       $var wire 1 m pipeline_valid_0 $end
       $var wire 4 "( addr $end
       $var wire 1 ": valid $end
       $var wire 1 "D clk $end
       $var wire 32 "M pipeline_data_0 $end
       $var wire 4 "r pipeline_addr_0 $end
       $var wire 1 #8 en $end
      $upscope $end
      $scope module MPORT_12 $end
       $var wire 4 W pipeline_addr_0 $end
       $var wire 1 "k valid $end
       $var wire 1 "q pipeline_valid_0 $end
       $var wire 1 "y mask $end
       $var wire 32 #( pipeline_data_0 $end
       $var wire 4 #w addr $end
       $var wire 1 $! clk $end
       $var wire 1 $( en $end
       $var wire 32 $0 data $end
      $upscope $end
      $scope module io_instr_MPORT $end
       $var wire 1 l clk $end
       $var wire 4 "c addr $end
       $var wire 32 #k data $end
       $var wire 1 $$ en $end
      $upscope $end
      $scope module MPORT_3 $end
       $var wire 1 x clk $end
       $var wire 32 "G pipeline_data_0 $end
       $var wire 1 "H valid $end
       $var wire 1 "[ en $end
       $var wire 1 #9 mask $end
       $var wire 32 #L data $end
       $var wire 4 #d pipeline_addr_0 $end
       $var wire 4 #m addr $end
       $var wire 1 $3 pipeline_valid_0 $end
      $upscope $end
    $upscope $end
  $upscope $end
  $scope module data_mem $end
   $var wire 32 9 io_addr $end
   $var wire 1 E io_wr_en $end
   $var wire 32 T mem_1 $end
   $var wire 32 V mem_0 $end
   $var wire 32 [ io_wr_data $end
   $var wire 32 ] io_rdata $end
   $var wire 1 c reset $end
   $var wire 1 "Q io_rd_en $end
   $var wire 1 #| clock $end
  $upscope $end
  $scope module alu $end
   $var wire 4 < io_ALUoperation $end
   $var wire 1 "" io_zero $end
   $var wire 32 "B io_ALUresult $end
   $var wire 32 #i io_operand2 $end
   $var wire 32 #j io_operand1 $end
  $upscope $end
  $scope module forwarding $end
   $var wire 5 A io_ex_mem_rd $end
   $var wire 1 Z io_ex_mem_reg_write $end
   $var wire 1 d io_id_ex_mem_read $end
   $var wire 1 "* io_mem_wb_reg_write $end
   $var wire 2 "; io_forward_b $end
   $var wire 2 "C io_forward_a $end
   $var wire 1 #F io_load_use_hazard $end
   $var wire 5 #G io_id_ex_rs1 $end
   $var wire 5 #I io_id_ex_rs2 $end
   $var wire 5 #\ io_mem_wb_rd $end
  $upscope $end
  $scope module reg_file $end
   $var wire 32 ! io_reg_data1 $end
   $var wire 32 " io_reg_data2 $end
   $var wire 1 b reset $end
   $var wire 32 p regfile_3 $end
   $var wire 32 q regfile_2 $end
   $var wire 32 r regfile_5 $end
   $var wire 32 s regfile_4 $end
   $var wire 32 t regfile_1 $end
   $var wire 32 u regfile_0 $end
   $var wire 32 z regfile_7 $end
   $var wire 32 { regfile_6 $end
   $var wire 32 } regfile_9 $end
   $var wire 32 ~ io_wr_data $end
   $var wire 32 "! regfile_8 $end
   $var wire 32 "$ io_x1 $end
   $var wire 32 "% io_x2 $end
   $var wire 32 "& io_x3 $end
   $var wire 5 "8 io_reg_addr1 $end
   $var wire 5 "9 io_reg_addr2 $end
   $var wire 5 "< io_wr_addr $end
   $var wire 32 "u regfile_12 $end
   $var wire 32 "v regfile_11 $end
   $var wire 32 "w regfile_10 $end
   $var wire 32 "{ regfile_19 $end
   $var wire 32 "| regfile_18 $end
   $var wire 32 "~ regfile_17 $end
   $var wire 32 #! regfile_16 $end
   $var wire 32 #" regfile_15 $end
   $var wire 32 ## regfile_14 $end
   $var wire 32 #$ regfile_13 $end
   $var wire 1 #& clock $end
   $var wire 32 #) regfile_23 $end
   $var wire 32 #+ regfile_22 $end
   $var wire 32 #, regfile_21 $end
   $var wire 32 #- regfile_20 $end
   $var wire 32 #. regfile_29 $end
   $var wire 32 #/ regfile_28 $end
   $var wire 32 #1 regfile_27 $end
   $var wire 32 #2 regfile_26 $end
   $var wire 32 #3 regfile_25 $end
   $var wire 32 #4 regfile_24 $end
   $var wire 32 #: regfile_31 $end
   $var wire 32 #; regfile_30 $end
   $var wire 1 #_ io_wr_en $end
  $upscope $end
$upscope $end
$enddefinitions $end
$dumpvars
b0000 "e
b00000000000000000000000000000000 *
b00000000000000000000000000000000 -
03
b00000000000000000000000000000000 '
b0000 "h
b00000000000000000000000000000000 (
b00000000000000000000000000000000 "
b0000 "n
b1011 "=
0>
b0000 "s
b00000000000000000000000000000000 !
b0000 "r
1$
0D
b00000000000000000000000000000000 7
0E
b00000000000000000000000000000000 9
b1010 #e
b00000000000000000000000000000000 8
b0000 #^
b0011 #m
0I
1+
0J
b0000 #`
0K
b00000000000000000000000000000000 4
b0111 e
b0000 #b
b0000 #d
0O
b0000 #c
12
15
0U
0X
1:
0Z
b0000 #p
0\
b0000 #q
1?
0^
b0000 #s
0b
1"#
0c
0d
b0000 1
b0000 .
0f
b00000000000000000000000000010011 "2
b0000 /
1H
b0000 <
1")
0j
0l
1"-
0m
1P
0o
b000000000000000000000000 #X
1R
b000000000000000000000000 #V
1S
b000000000000000000000000 #U
1"4
b00000000101000000000000010010011 #h
0v
b000000000000000000000000 #Y
0w
0x
0y
b00000000010100000000000100010011 "U
0|
1">
1a
b000000000000000000000000 $-
b000000000000000000000000 $,
b000000000000000000000000 $+
1g
b000000000000000000000000 #O
b000000000000000000000000 #N
b000000000000000000000000 $/
1k
b000000000000000000000000 #M
b000000000000000000000000 $.
b000000000000000000000000 $5
b000000000000000000000000 #S
1n
b000000000000000000000000 #R
b00000000000100000010000000100011 "7
b000000000000000000000000 #Q
b0001 "g
1"T
1#5
1#8
1#9
1"[
b0000000 "R
0""
1$$
1$(
1#H
b00000000000100000010000000100011 #6
0"*
0".
0"1
0"3
b00000000000100000000000100010011 #7
0"5
1$6
0"6
0":
1"y
0"@
b1100 #w
1#a
b00000 "9
b00000 "8
0"D
0#%
0#&
b00000 "<
0"H
1#l
b00000000000000000000 $'
0#0
0"Q
b00000000000100001000000010010011 "0
1#r
0"S
b00 ";
0"V
0"W
b00000000000000000010000100000011 @
0"X
0"Y
0"Z
b00 "C
0"]
1#}
0"^
0"_
0$!
0$"
b0000000 i
0"a
0#C
0$%
0"d
0#E
0#F
0"f
0#J
0"k
0#P
0"p
0$2
0"q
0$3
b00000000000000000000000000000000 "o
b00000000000000000000000000000000 $1
0$4
0#T
b00000000000000000000000000000000 "m
0"t
0#W
0"x
0#Z
0#]
0"}
0#_
b00000000000000000000000000000000 #K
b00000000000000000000000000000000 $*
b00000000000000000000000000000000 "~
b00000 #\
b00000000000000000000000000000000 "|
b00000000000000000000000000000000 "w
b00000000000000000000000000000000 "v
b00000000000000000000000000000000 "u
b1101 "l
b00000000000000000010000100000011 =
b00000000000000000000000000000000 "{
b00000000000000000000000000000000 "z
b00000000000000000000000000000000 #[
b00000000000000000000000000000000 #o
b00000 #I
b00000000000000000000000000000000 #n
b00000000000000000000000000000000 #t
0#{
0#|
b00000 "`
0#~
b00 N
b00000000000000000000000000000000 #k
b00000000000000000000000000000000 #j
b00000000000000000000000000000000 #i
b00000 #G
b00000000000000000000000000000000 #x
b00000000000000000000000000000000 #v
b00000000000000000000000000000000 #u
b00000000000100000000000010010011 0
b00000000000000000000000000000000 #z
b00000000000000000000000000000000 #y
b00 B
b00000000000000000000000000000000 "/
b00000000000000000000000000000000 ",
b00000000000000000000000000000000 "'
b00000000000000000000000000000000 "&
b00000000000000000000000000000000 "%
b00000000000000000000000000000000 "$
b00000000000000000000000000000000 "+
b1110 C
b0100 "i
b00000000000000000000000000000000 #$
b00000000000000000000000000000000 "B
b00000000000000000000000000000000 ##
b00000000000000000000000000000000 #"
b00000000000000000000000000000000 #!
b00000000000000000000000000000000 "O
b00000000000000000000000000000000 "N
b00000000000000000000000000000000 #/
b00000000000000000000000000000000 "M
b00000000000000000000000000000000 #.
b00000000000000000000000000000000 "L
b00000000000000000000000000000000 #-
b00000000000000000000000000000000 #4
b00000000000000000000000000000000 #3
b00000000000000000000000000000000 #2
b00000000000000000000000000000000 "P
b00000000000000000000000000000000 #1
b00000000000000000000000000000000 "G
b00000000000000000000000000000000 #(
b00000000000000000000000000000000 "F
b00000000000000000000000000000000 #'
b00000000000000000000000000000000 "E
b00000000000000000000000000000000 "K
b00000000000000000000000000000000 #,
b00000000000000000000000000000000 "J
b00000000000000000000000000000000 #+
b00000000000000000000000000000000 #)
b00000000000000000000000000000000 #@
b00000000000000000000000000000000 #?
b00000000000000000000000000000000 #>
b00000000000000000000000000000000 "\
b00000000000000000000000000000000 #=
b00000000000000000000000000000000 #D
b00000000000000000000000000000000 "b
b00000000000000000000000000000000 #B
b00000000000000000000000000000000 #A
b00000000000000000000000000000000 #<
b00000000000000000000000000000000 #;
b00000000000000000000000000000000 #:
b0010 "(
b00000000001000001000011001100011 "j
b000000000000000000000 `
b0101 #*
b00000000000 ;
b00000000000000000000000000000000 "!
b1001 "A
b00000000000000000000000000010011 Q
b000000000000000000000000000 $&
b00000 6
b000000000000000000000000000 $#
b00000000000000000000000000000000 ~
b00000 A
b00000000000100010000000110010011 h
b00000000001000001000000110110011 #g
b1111 G
b1000 "I
b00000000000100000000000010010011 #L
b00000000000100000000000010010011 $0
b00000000000000000000000000000000 {
b00000000000000000000000000000000 z
b000000000000 #f
b00000000000000000000000000000000 }
b0110 _
b00000000000000000000000000000000 s
b00000000000000000000000000000000 r
b0000 "?
b00000000000000000000000000000000 u
b00000000000000000000000000000000 t
b0000 Y
b00000000000000000000000000000000 q
b0000 W
b00000000000000000000000000000000 p
b00000000000000000000000000000000 M
b00000000000000000000000000000000 L
b00000000000000000000000000000000 F
b000000000000 $)
b00000000000000000000000000000000 [
b00000000000000000000000000000000 ]
0#
0%
b00000000000000000000000000000000 V
0&
0)
b00000000000000000000000000000000 T
0,
b0000 "c
$end
#0
1#C
1#E
1"f
b000100001000000010010011 $+
b000100000000000010010011 $,
1I
b000100000010000000100011 $-
1"k
b000000000000000000010011 #M
b000000000010000100000011 $.
b001000001000011001100011 #N
b000100010000000110010011 $/
b000100000000000010010011 #O
1#P
b000000000010000100000011 #Q
b000100000010000000100011 #R
b101000000000000010010011 #S
1"3
b000000000000000000010011 $5
b000100000000000100010011 #U
b000100000000000010010011 #V
b001000001000000110110011 #X
b010100000000000100010011 #Y
1"x
1X
1":
b00000000000000000000000000000100 "z
b0010 "?
1b
1#
1c
1f
1"H
1)
1o
1"W
b00000000000000000000000000000100 7
1#{
b0010 <
#1
1"d
b1101 "e
b1010 "h
b00000000101000000000000010010011 #K
b0101 "n
b00000000000100000010000000100011 $1
1$2
1"q
1$3
b0010 "r
1#T
b1000 "s
1"t
1#W
1#]
1"}
b0110 #b
b1001 #c
b0011 #d
1&
b00000000101000000000000010010011 '
b00000000000000000010000100000011 (
b00000000101000000000000010010011 #k
b00000000000100001000000010010011 *
b00000000000000000000000000010011 #n
1,
b0001 .
b1110 #q
b0100 /
b1011 #s
b0111 1
13
1#|
1#~
1>
1D
b00000000000100000010000000100011 F
1J
b00000000000100000000000100010011 L
1".
b00000000010100000000000100010011 M
1"6
1U
b1100 W
b1111 Y
1\
1^
1"@
1#%
1"D
1#&
b00000000000000000000000000010011 "E
b00000000000100010000000110010011 #'
b00000000000100000000000010010011 "F
b00000000000100000000000010010011 #(
b00000000000100000000000010010011 "G
b00000000001000001000000110110011 "J
b00000000001000001000011001100011 "K
1j
b00000000000000000010000100000011 "M
1l
1m
1"S
1"V
1"Y
1x
1$!
1"_
1$"
1"a
#6
0J
1#P
0$4
0#T
0"t
0"6
0U
0#]
0\
0^
1b
0"D
1c
0#&
0l
0"S
03
0"Y
0x
0#|
0#~
0$!
0"_
0>
0$"
#11
1"D
1#&
1J
1l
1"S
1#T
1"t
13
1"6
1U
1"Y
1x
1#|
1#]
1#~
1\
1$!
1"_
1>
1^
1$"
#16
0J
0#P
1$4
0#T
0"t
0"6
0U
0#]
0\
0^
0b
0"D
0c
0#&
0l
0"S
03
0"Y
0x
0#|
0#~
0$!
0"_
0>
0$"
#21
b00000000101000000000000010010011 #D
b0001 "c
b000000000000000000001000000 $&
b00000000000000000000000000000100 "'
b000000001010 $)
b01010 #I
b00000000000000000000000000001010 $*
b00000000000100000010000000100011 #K
1J
b00000000101000000000000010010011 "o
1O
1#T
1"t
1"6
1U
b01010 "9
b00000000000000000000000000001010 #[
b00000000000000000000000000001000 "z
1#]
1\
1^
b000000000000000000001 `
b00000000000000000000000000001010 "B
1"D
1#&
b00000000000000000000000000001010 #i
b00000000000100000010000000100011 #k
b0010011 i
1l
b00000000000000000000000000000100 #o
b00000000000000000000000000001010 -
b0010011 "R
1"S
13
1"X
b00000000000000000000000000001000 7
1"Y
1x
1#|
b00000000101 ;
1#~
1$!
1"_
1>
1$"
#26
0"D
0#&
0J
0l
0"S
0#T
0"t
03
0"6
0U
0"Y
0x
0#|
0#]
0#~
0\
0$!
0"_
0>
0^
0$"
#31
b00000000000000000000000000001010 "b
b00000000000100000010000000100011 #D
b0010 "c
b000000000000000000000000000 $&
b00000000000000000010 $'
b100000000000 $)
b00001 #I
b00000000000000000000000000000100 $*
b00000000000000000010000100000011 #K
b00000000000100000010000000100011 "o
1#T
1"t
b00000000000000000000000000000000 #[
b00000000000000000000000000001100 "z
1#]
b0010 #^
1#_
b00000000000000000000000000000000 #i
b00000000000000000010000100000011 #k
b00000000000000000000000000001000 #o
b00000000000000000000000000000000 -
13
b00000000000000000000000000000100 4
b00000000000000000000000000001100 7
b00000000000000000000000000001010 9
1#|
b10000000000 ;
1#~
1>
b00001 A
b00000000000000000000000000001000 "'
1J
0O
1"6
1U
b00001 "9
b10 ";
1Z
b00001 "<
1\
1^
b000000000000000000000 `
b00000000000000000000000000000000 "B
1"D
1#&
b0100011 i
1l
b0100011 "R
1"S
1"Y
1x
1"Z
b00000000000000000000000000001010 #<
1|
1$!
1"_
b00000000000000000000000000001010 ~
b00001 "`
1$"
#36
0"D
0#&
0J
0l
0"S
0#T
0"t
03
0"6
0U
0"Y
0x
0#|
0#]
0#~
0\
0$!
0"_
0>
0^
0$"
#41
b00000000000000000000000000000000 "b
b00000000000000000010000100000011 #D
b0011 "c
b000000000000 $)
b00000 #I
b00000000000000000000000000001000 $*
b00000000000100000000000010010011 #K
b00000000000000000010000100000011 "o
1#T
1"t
b00000000000000000000000000010000 "z
1#]
0#_
b00000000000100000000000010010011 #k
b00000000000000000000000000001100 #o
13
b00000000000000000000000000001000 4
b00010 6
b00000000000000000000000000010000 7
b00000000000000000000000000000000 9
1#|
b00000000000 ;
1#~
1>
b00000 A
b00000000000000000000000000001010 "$
1E
b00000000000000000000000000001100 "'
1J
b00000000000000000000000000001010 ",
1O
1"1
1"6
1U
b00000 "9
b00 ";
0Z
b00000 "<
b00000000000000000000000000001010 [
1\
1^
1"D
1#&
1d
b0000011 i
1l
b0000011 "R
1"S
b00000000000000000000000000001010 t
1v
1"Y
1x
0"Z
b00000000000000000000000000000000 #<
b00000000000000000000000000001010 "\
0|
1"^
1$!
1"_
b00000000000000000000000000000000 ~
b00000 "`
1$"
#46
0"D
0#&
0J
0l
0"S
0#T
0"t
03
0"6
0U
0"Y
0x
0#|
0#]
0#~
0\
0$!
0"_
0>
0^
0$"
#51
b00000000000100000000000010010011 #D
b0100 "c
b000000000000000000001000000 $&
b00000000000000000000 $'
b100000000000 $)
b00001 #I
b00000000000000000000000000001101 $*
1#J
b00000000010100000000000100010011 #K
b00000000000100000000000010010011 "o
1"p
1#T
1"t
b00000000000000000000000000000001 #[
b00000000000000000000000000010100 "z
1#]
b0000 #^
1#_
b00000000000000000000000000001010 "
b00000000000000000000000000000001 #i
b00000000010100000000000100010011 #k
b00000000000000000000000000010000 #o
b00000000000000000000000000000001 -
13
b00000000000000000000000000001100 4
b00000 6
b00000000000000000000000000010100 7
1#|
b10000000000 ;
1#~
1>
b00010 A
0E
b00000000000000000000000000010000 "'
1J
0"1
1"6
1U
b00000000000000000000000000001010 V
b00001 "9
1Z
b00010 "<
b00000000000000000000000000000000 [
1\
b00000000000000000000000000001010 ]
1^
b000000000000000000001 `
b00000000000000000000000000000001 "B
1"D
1#&
0d
b0010011 i
1l
1"Q
b0010011 "R
1"S
0v
1"Y
1x
1"Z
b00000000000000000000000000001010 #<
b00000000000000000000000000000000 "\
0"^
1$!
1"_
b00000000000000000000000000001010 ~
b00010 "`
1$"
#56
0"D
0#&
0J
0l
0"S
0#T
0"t
03
0"6
0U
0"Y
0x
0#|
0#]
0#~
0\
0$!
0"_
0>
0^
0$"
#61
b00000000000000000000000000000001 "b
b00000000010100000000000100010011 #D
b0101 "c
b000000000000000000000000000 $&
b100000000100 $)
b00101 #I
b00000000000000000000000000010101 $*
0#J
b00000000001000001000000110110011 #K
b00000000010100000000000100010011 "o
0"p
1#T
1"t
b00000000000000000000000000000101 #[
b00000000000000000000000000011000 "z
1#]
b00000000000000000000000000000000 "
b00000000000000000000000000000101 #i
b00000000001000001000000110110011 #k
b00000000000000000000000000010100 #o
b00000000000000000000000000000101 -
13
b00000000000000000000000000010000 4
b00010 6
b00000000000000000000000000011000 7
b00000000000000000000000000000001 9
1#|
b10000000010 ;
1#~
1>
b00001 A
b00000000000000000000000000001010 "%
b00000000000000000000000000010100 "'
b00000000000000000000000000001010 "+
1J
1"6
1U
b00101 "9
b00001 "<
b00000000000000000000000000001010 [
1\
b00000000000000000000000000000000 ]
1^
b000000000000000000000 `
b00000000000000000000000000000101 "B
1"D
1#&
1l
0"Q
b00000000000000000000000000001010 q
1"S
1"Y
1x
b00000000000000000000000000000000 #<
b00000000000000000000000000001010 "\
1$!
1"_
b00000000000000000000000000000001 ~
b00001 "`
1$"
#66
0"D
0#&
0J
0l
0"S
0#T
0"t
03
0"6
0U
0"Y
0x
0#|
0#]
0#~
0\
0$!
0"_
0>
0^
0$"
#71
b00000000000000000000000000000101 "b
b00000000001000001000000110110011 #D
b0110 "c
b000000000000000000001000000 $&
b00000000000000001000 $'
b00001 #G
b000000000010 $)
b00010 #I
b00000000000000000000000000010100 $*
b00000000000100000000000010010011 #K
b00000000001000001000000110110011 "o
1#T
1"t
b00000000000000000000000000011100 "z
1#]
b00000000000000000000000000000001 !
b00000000000000000000000000001010 "
b00000000000000000000000000000001 #j
b00000000000100000000000010010011 #k
b00000000000000000000000000011000 #o
b00000000000000000000000000000000 -
13
b00000000000000000000000000010100 4
b00000000000000000000000000011100 7
b00000000000000000000000000000101 9
1#|
b00000000001 ;
1#~
1>
b00010 A
b10 B
b00000000000000000000000000000001 "$
b00000000000000000000000000011000 "'
1J
b00000000000000000000000000000001 ",
b10 N
1"6
1U
b00001 "8
b00010 "9
b10 ";
b00010 "<
b00000000000000000000000000000000 [
1\
1^
b000000000000000000001 `
b00000000000000000000000000000110 "B
1"D
1#&
b0110011 i
1l
b0110011 "R
1"S
b00000000000000000000000000000001 t
0"X
1"Y
1x
b00000000000000000000000000000101 #<
b00000000000000000000000000000000 "\
b00000000000000000000000000000001 #=
1$!
1"_
b00000000000000000000000000000101 ~
b00010 "`
1$"
#76
0"D
0#&
0J
0l
0"S
0#T
0"t
03
0"6
0U
0"Y
0x
0#|
0#]
0#~
0\
0$!
0"_
0>
0^
0$"
#81
b00000000000000000000000000000110 "b
b00000000000100000000000010010011 #D
b0111 "c
b00000000000000000000 $'
b00000 #G
b100000000000 $)
b00001 #I
b00000000000000000000000000011001 $*
b00000000000100000000000100010011 #K
b00000000000100000000000010010011 "o
1#T
1"t
b00000000000000000000000000000001 #[
b00000000000000000000000000100000 "z
1#]
b00000000000000000000000000000000 !
b00000000000000000000000000000001 "
b00000000000000000000000000000001 #i
b00000000000000000000000000000000 #j
b00000000000100000000000100010011 #k
b00000000000000000000000000011100 #o
b00000000000000000000000000000001 -
13
b00000000000000000000000000011000 4
b00000 6
b00000000000000000000000000100000 7
b00000000000000000000000000000110 9
1#|
b10000000000 ;
1#~
1>
b00011 A
b00 B
b00000000000000000000000000000101 "%
b00000000000000000000000000011100 "'
b00000000000000000000000000000101 "+
1J
b00 N
1"6
1U
b00000 "8
b00001 "9
b00 ";
b00011 "<
b00000000000000000000000000000101 [
1\
1^
b00000000000000000000000000000001 "B
1"D
1#&
b0010011 i
1l
b0010011 "R
b00000000000000000000000000000101 q
1"S
1"X
1"Y
1x
b00000000000000000000000000000001 #<
b00000000000000000000000000000101 "\
b00000000000000000000000000000000 #=
1$!
1"_
b00000000000000000000000000000110 ~
b00011 "`
1$"
#86
0"D
0#&
0J
0l
0"S
0#T
0"t
03
0"6
0U
0"Y
0x
0#|
0#]
0#~
0\
0$!
0"_
0>
0^
0$"
#91
b00000000000000000000000000000001 "b
b00001 A
b00000000000100000000000100010011 #D
b1000 "c
b000000000000000000000000000 $&
b00000000000000000000000000000110 "&
b00000000000000000000000000100000 "'
b00000000000000000000000000011101 $*
b00000000001000001000011001100011 #K
1J
b00000000000000000000000000000110 "/
b00000000000100000000000100010011 "o
1#T
1"t
1"6
1U
b00000000000000000000000000100100 "z
b10 ";
b00001 "<
1#]
b00000000000000000000000000000001 [
1\
1^
b000000000000000000000 `
1"D
1#&
b00000000001000001000011001100011 #k
1l
b00000000000000000000000000100000 #o
b00000000000000000000000000000110 p
1"S
13
b00000000000000000000000000011100 4
b00010 6
b00000000000000000000000000100100 7
1"Y
1x
b00000000000000000000000000000001 9
1#|
b00000000000000000000000000000001 "\
1#~
1$!
1"_
1>
b00000000000000000000000000000001 ~
b00001 "`
1$"
